[
   {
        "id": 1,
        "title": "Some title",
        "description": "Some description",
        "created_at": "2017-24-12"
    },{
        "id": 2,
        "title": "Some title",
        "description": "Some description",
        "created_at": "2017-24-12"
    }, {
        "id": 3,
        "title": "Some title",
        "description": "Deserunt do irure adipisicing Lorem laboris laboris aute magna nulla dolor cupidatat ea veniam eu.",
        "created_at": "2017-24-12"
    }, {
        "id": 4,
        "title": "Some title",
        "description": "Some description",
        "created_at": "2017-05-07"
    }, {
        "id": 5,
        "title": "Some title",
        "description": "Some description",
        "created_at": "2017-24-12"
    }, {
        "id": 6,
        "title": "Deserunt do irure adipisicing Lorem laboris laboris aute magna nulla dolor cupidatat ea veniam eu.",
        "description": "Some description",
        "created_at": "2017-24-12"
    }, {
        "id": 7,
        "title": "Some title",
        "description": "Some description",
        "created_at": "2017-02-12"
    }, {
        "id": 8,
        "title": "Some title",
        "description": "Deserunt do irure adipisicing Lorem laboris laboris aute magna nulla dolor cupidatat ea veniam eu.",
        "created_at": "2016-24-12"
    }, {
        "id": 9,
        "title": "Some title",
        "description": "Some description",
        "created_at": "2017-24-12"
    }, {
        "id": 10,
        "title": "Some title",
        "description": "Deserunt do irure adipisicing Lorem laboris laboris aute magna nulla dolor cupidatat ea veniam eu.",
        "created_at": "2017-24-12"
    }, {
        "id": 11,
        "title": "Deserunt do irure adipisicing Lorem laboris laboris aute magna nulla dolor cupidatat ea veniam eu.",
        "description": "Some description",
        "created_at": "2015-24-12"
    }, {
        "id": 12,
        "title": "Some title",
        "description": "Some description",
        "created_at": "2017-01-08"
    }, {
        "id": 13,
        "title": "Some title",
        "description": "Some description",
        "created_at": "2017-24-12"
    }, {
        "id": 14,
        "title": "Some title",
        "description": "Some description",
        "created_at": "2017-24-12"
    }
]


